<?xml version="1.0" encoding="utf-8"?>
<!-- Generator: Adobe Illustrator 18.0.0, SVG Export Plug-In . SVG Version: 6.00 Build 0)  -->
<!DOCTYPE svg PUBLIC "-//W3C//DTD SVG 1.1//EN" "http://www.w3.org/Graphics/SVG/1.1/DTD/svg11.dtd">
<svg version="1.1" id="Layer_1" xmlns="http://www.w3.org/2000/svg" xmlns:xlink="http://www.w3.org/1999/xlink" x="0px" y="0px"
	 viewBox="0 0 12 12" enable-background="new 0 0 12 12" xml:space="preserve">
<path fill="#7F7F7F" d="M7,8.1c0.2,0.6,0.8,1.1,1.5,1.1c1.8,0,3.4-2.1,3.4-4.3C12,2,9.7,0,6.5,0C2.8,0,0,2.7,0,6.1C0,9.5,2.7,12,6.3,12
	c1.9,0,3.5-0.7,5-1.8l-0.7-1c-1.4,1-2.6,1.6-4.3,1.6c-2.9,0-4.9-1.9-4.9-4.6c0-2.8,2.1-4.9,5.1-4.9c2.5,0,4.1,1.4,4.1,3.5
	c0,1.5-0.9,2.9-1.6,2.9c-0.3,0-0.4-0.2-0.4-0.4c0-0.2,0.1-0.6,0.2-1l1-3.4H7.8L7.7,3.4C7.4,2.9,6.8,2.6,6.1,2.6
	c-1.8,0-3.3,1.9-3.3,3.9c0,1.6,0.9,2.6,2.3,2.6C5.8,9.2,6.5,8.8,7,8.1z M6.5,4.1c0.4,0,0.6,0.2,0.6,0.6c0,0.7-0.6,3-1.5,3
	C5.2,7.7,5,7.4,5,6.7C5,5.8,5.6,4.1,6.5,4.1z"/>
</svg>
