<svg xmlns="http://www.w3.org/2000/svg" id="actor" viewBox="0 0 100 100" fill="#fff">
	<path d="M67.3,36.5c-5.4,0-9.8-4.4-9.8-9.8S62,17,67.3,17s9.8,4.4,9.8,9.8S72.7,36.5,67.3,36.5z M67.3,21.3c-3,0-5.4,2.4-5.4,5.4s2.4,5.4,5.4,5.4c3,0,5.4-2.4,5.4-5.4S70.3,21.3,67.3,21.3z" />
	<path d="M35.4,36.5c-5.4,0-9.8-4.4-9.8-9.8S30,17,35.4,17s9.8,4.4,9.8,9.8S40.7,36.5,35.4,36.5z M35.4,21.3c-3,0-5.4,2.4-5.4,5.4s2.4,5.4,5.4,5.4c3,0,5.4-2.4,5.4-5.4S38.4,21.3,35.4,21.3z" />
	<path d="M50,0.1C22.5,0.1,0.1,22.5,0.1,50S22.5,99.9,50,99.9c27.5,0,49.9-22.4,49.9-49.9S77.5,0.1,50,0.1z M4.4,50c0-25.1,20.4-45.6,45.5-45.6v35l9,10.4l-7.9,7.6v12.3H40.2v4.3h10.8v21.4c-0.4,0-0.7,0-1.1,0C24.9,95.6,4.4,75.1,4.4,50zM55.4,95.3V74.1h10.8v-4.3H55.4V59.4l9.5-9.2L54.3,37.9V4.6C77.4,6.8,95.6,26.3,95.6,50C95.6,73.3,78,92.6,55.4,95.3z" />
</svg>