<svg xmlns="http://www.w3.org/2000/svg" id="age-14" viewBox="0 0 24 14">
	<g>
		<path d="M4.3,13.2H3.5V2.1c-1,1-1.9,1.4-3.3,1.6V3.1c1.6-0.3,2.3-0.8,3.4-2.3h0.6V13.2z" />
		<path d="M15.1,10h-2v3.2h-0.7V10h-6V9.3l6-8.5h0.7v8.6h2V10z M12.4,3.2c0-0.7,0-0.9,0-1.6c-0.5,0.7-0.6,1-0.9,1.3L7,9.4h5.4V3.2z" />
	</g>
	<g>
		<path d="M20.4,7.1h-2.7V6.5h2.7V3.8H21v2.7h2.7v0.6H21v2.7h-0.7V7.1z" />
	</g>
</svg>