<svg id="logo" xmlns="http://www.w3.org/2000/svg" viewBox="0 0 129.2 93.3">
	<polygon points="0,93.3 0,93.3 129.2,93.3 129.2,93.3 129.2,21.9 121.6,21.9 121.6,86.4 7.6,86.4 7.6,6.9 129.2,6.9 129.2,-0.1 7.6,-0.1 0,-0.1" />
	<g>
		<polygon points="44.3,29 44.3,21.8 27.2,21.8 27.2,71.4 44.3,71.4 44.3,64.2 34.9,64.2 34.9,49.2 43.3,49.2 43.3,42.1 34.8,42.1 34.8,29" />
		<polygon points="53,71.4 57.2,56 61.6,71.4 69.3,71.4 61.2,45.8 68.6,21.8 61,21.8 57.2,35.2 53.2,21.8 45.6,21.8 53.1,45.9 45.6,71.4" />
		<rect x="70.5" y="21.8" width="7.4" height="49.6" />
		<polygon points="94.4,71.4 94.4,28.6 102,28.6 102,21.8 79.4,21.8 79.4,28.6 86.8,28.6 86.8,71.4" />
	</g>
</svg>
